<?xml version="1.0" ?>
<!-- License: Apache. Made by remixicon: https://github.com/Remix-Design/remixicon -->
<svg width="800px" height="800px" viewBox="0 0 24 24" xmlns="http://www.w3.org/2000/svg">
    <g>
        <path d="M0 0h24v24H0z" fill="none"/>
        <path d="M21 19h2v2H1v-2h2V4a1 1 0 0 1 1-1h10a1 1 0 0 1 1 1v15h4v-8h-2V9h3a1 1 0 0 1 1 1v9zM5 5v14h8V5H5zm2 6h4v2H7v-2zm0-4h4v2H7V7z" fill="#444"/>
    </g>
</svg>
